{
  "count": 528,
  "next": "https://api.octopus.energy/v1/electricity-meter-points/2200017071783/meters/17P0117467/consumption/?page=2",
  "previous": null,
  "results": [
    {
      "consumption": 0.06,
      "interval_start": "2019-10-14T00:30:00+01:00",
      "interval_end": "2019-10-14T01:00:00+01:00"
    },
    {
      "consumption": 0.096,
      "interval_start": "2019-10-14T00:00:00+01:00",
      "interval_end": "2019-10-14T00:30:00+01:00"
    },
    {
      "consumption": 0.059,
      "interval_start": "2019-10-13T23:30:00+01:00",
      "interval_end": "2019-10-14T00:00:00+01:00"
    },
    {
      "consumption": 0.117,
      "interval_start": "2019-10-13T23:00:00+01:00",
      "interval_end": "2019-10-13T23:30:00+01:00"
    },
    {
      "consumption": 0.117,
      "interval_start": "2019-10-13T22:30:00+01:00",
      "interval_end": "2019-10-13T23:00:00+01:00"
    },
    {
      "consumption": 0.458,
      "interval_start": "2019-10-13T22:00:00+01:00",
      "interval_end": "2019-10-13T22:30:00+01:00"
    },
    {
      "consumption": 0.618,
      "interval_start": "2019-10-13T21:30:00+01:00",
      "interval_end": "2019-10-13T22:00:00+01:00"
    },
    {
      "consumption": 0.176,
      "interval_start": "2019-10-13T21:00:00+01:00",
      "interval_end": "2019-10-13T21:30:00+01:00"
    },
    {
      "consumption": 0.269,
      "interval_start": "2019-10-13T20:30:00+01:00",
      "interval_end": "2019-10-13T21:00:00+01:00"
    },
    {
      "consumption": 0.211,
      "interval_start": "2019-10-13T20:00:00+01:00",
      "interval_end": "2019-10-13T20:30:00+01:00"
    },
    {
      "consumption": 1.125,
      "interval_start": "2019-10-13T19:30:00+01:00",
      "interval_end": "2019-10-13T20:00:00+01:00"
    },
    {
      "consumption": 0.615,
      "interval_start": "2019-10-13T19:00:00+01:00",
      "interval_end": "2019-10-13T19:30:00+01:00"
    },
    {
      "consumption": 0.519,
      "interval_start": "2019-10-13T18:30:00+01:00",
      "interval_end": "2019-10-13T19:00:00+01:00"
    },
    {
      "consumption": 0.685,
      "interval_start": "2019-10-13T18:00:00+01:00",
      "interval_end": "2019-10-13T18:30:00+01:00"
    },
    {
      "consumption": 0.125,
      "interval_start": "2019-10-13T17:30:00+01:00",
      "interval_end": "2019-10-13T18:00:00+01:00"
    },
    {
      "consumption": 0.093,
      "interval_start": "2019-10-13T17:00:00+01:00",
      "interval_end": "2019-10-13T17:30:00+01:00"
    },
    {
      "consumption": 0.259,
      "interval_start": "2019-10-13T16:30:00+01:00",
      "interval_end": "2019-10-13T17:00:00+01:00"
    },
    {
      "consumption": 0.115,
      "interval_start": "2019-10-13T16:00:00+01:00",
      "interval_end": "2019-10-13T16:30:00+01:00"
    },
    {
      "consumption": 0.257,
      "interval_start": "2019-10-13T15:30:00+01:00",
      "interval_end": "2019-10-13T16:00:00+01:00"
    },
    {
      "consumption": 0.122,
      "interval_start": "2019-10-13T15:00:00+01:00",
      "interval_end": "2019-10-13T15:30:00+01:00"
    },
    {
      "consumption": 0.149,
      "interval_start": "2019-10-13T14:30:00+01:00",
      "interval_end": "2019-10-13T15:00:00+01:00"
    },
    {
      "consumption": 0.123,
      "interval_start": "2019-10-13T14:00:00+01:00",
      "interval_end": "2019-10-13T14:30:00+01:00"
    },
    {
      "consumption": 0.144,
      "interval_start": "2019-10-13T13:30:00+01:00",
      "interval_end": "2019-10-13T14:00:00+01:00"
    },
    {
      "consumption": 0.12,
      "interval_start": "2019-10-13T13:00:00+01:00",
      "interval_end": "2019-10-13T13:30:00+01:00"
    },
    {
      "consumption": 0.137,
      "interval_start": "2019-10-13T12:30:00+01:00",
      "interval_end": "2019-10-13T13:00:00+01:00"
    },
    {
      "consumption": 0.214,
      "interval_start": "2019-10-13T12:00:00+01:00",
      "interval_end": "2019-10-13T12:30:00+01:00"
    },
    {
      "consumption": 0.14,
      "interval_start": "2019-10-13T11:30:00+01:00",
      "interval_end": "2019-10-13T12:00:00+01:00"
    },
    {
      "consumption": 0.108,
      "interval_start": "2019-10-13T11:00:00+01:00",
      "interval_end": "2019-10-13T11:30:00+01:00"
    },
    {
      "consumption": 0.123,
      "interval_start": "2019-10-13T10:30:00+01:00",
      "interval_end": "2019-10-13T11:00:00+01:00"
    },
    {
      "consumption": 0.224,
      "interval_start": "2019-10-13T10:00:00+01:00",
      "interval_end": "2019-10-13T10:30:00+01:00"
    },
    {
      "consumption": 0.678,
      "interval_start": "2019-10-13T09:30:00+01:00",
      "interval_end": "2019-10-13T10:00:00+01:00"
    },
    {
      "consumption": 0.195,
      "interval_start": "2019-10-13T09:00:00+01:00",
      "interval_end": "2019-10-13T09:30:00+01:00"
    },
    {
      "consumption": 0.086,
      "interval_start": "2019-10-13T08:30:00+01:00",
      "interval_end": "2019-10-13T09:00:00+01:00"
    },
    {
      "consumption": 0.075,
      "interval_start": "2019-10-13T08:00:00+01:00",
      "interval_end": "2019-10-13T08:30:00+01:00"
    },
    {
      "consumption": 0.104,
      "interval_start": "2019-10-13T07:30:00+01:00",
      "interval_end": "2019-10-13T08:00:00+01:00"
    },
    {
      "consumption": 0.089,
      "interval_start": "2019-10-13T07:00:00+01:00",
      "interval_end": "2019-10-13T07:30:00+01:00"
    },
    {
      "consumption": 0.131,
      "interval_start": "2019-10-13T06:30:00+01:00",
      "interval_end": "2019-10-13T07:00:00+01:00"
    },
    {
      "consumption": 0.073,
      "interval_start": "2019-10-13T06:00:00+01:00",
      "interval_end": "2019-10-13T06:30:00+01:00"
    },
    {
      "consumption": 0.082,
      "interval_start": "2019-10-13T05:30:00+01:00",
      "interval_end": "2019-10-13T06:00:00+01:00"
    },
    {
      "consumption": 0.56,
      "interval_start": "2019-10-13T05:00:00+01:00",
      "interval_end": "2019-10-13T05:30:00+01:00"
    },
    {
      "consumption": 0.217,
      "interval_start": "2019-10-13T04:30:00+01:00",
      "interval_end": "2019-10-13T05:00:00+01:00"
    },
    {
      "consumption": 0.506,
      "interval_start": "2019-10-13T04:00:00+01:00",
      "interval_end": "2019-10-13T04:30:00+01:00"
    },
    {
      "consumption": 0.098,
      "interval_start": "2019-10-13T03:30:00+01:00",
      "interval_end": "2019-10-13T04:00:00+01:00"
    },
    {
      "consumption": 0.458,
      "interval_start": "2019-10-13T03:00:00+01:00",
      "interval_end": "2019-10-13T03:30:00+01:00"
    },
    {
      "consumption": 0.321,
      "interval_start": "2019-10-13T02:30:00+01:00",
      "interval_end": "2019-10-13T03:00:00+01:00"
    },
    {
      "consumption": 0.085,
      "interval_start": "2019-10-13T02:00:00+01:00",
      "interval_end": "2019-10-13T02:30:00+01:00"
    },
    {
      "consumption": 0.076,
      "interval_start": "2019-10-13T01:30:00+01:00",
      "interval_end": "2019-10-13T02:00:00+01:00"
    },
    {
      "consumption": 0.086,
      "interval_start": "2019-10-13T01:00:00+01:00",
      "interval_end": "2019-10-13T01:30:00+01:00"
    },
    {
      "consumption": 0.076,
      "interval_start": "2019-10-13T00:30:00+01:00",
      "interval_end": "2019-10-13T01:00:00+01:00"
    },
    {
      "consumption": 0.091,
      "interval_start": "2019-10-13T00:00:00+01:00",
      "interval_end": "2019-10-13T00:30:00+01:00"
    },
    {
      "consumption": 0.08,
      "interval_start": "2019-10-12T23:30:00+01:00",
      "interval_end": "2019-10-13T00:00:00+01:00"
    },
    {
      "consumption": 0.128,
      "interval_start": "2019-10-12T23:00:00+01:00",
      "interval_end": "2019-10-12T23:30:00+01:00"
    },
    {
      "consumption": 0.149,
      "interval_start": "2019-10-12T22:30:00+01:00",
      "interval_end": "2019-10-12T23:00:00+01:00"
    },
    {
      "consumption": 0.16,
      "interval_start": "2019-10-12T22:00:00+01:00",
      "interval_end": "2019-10-12T22:30:00+01:00"
    },
    {
      "consumption": 0.731,
      "interval_start": "2019-10-12T21:30:00+01:00",
      "interval_end": "2019-10-12T22:00:00+01:00"
    },
    {
      "consumption": 0.132,
      "interval_start": "2019-10-12T21:00:00+01:00",
      "interval_end": "2019-10-12T21:30:00+01:00"
    },
    {
      "consumption": 0.126,
      "interval_start": "2019-10-12T20:30:00+01:00",
      "interval_end": "2019-10-12T21:00:00+01:00"
    },
    {
      "consumption": 0.199,
      "interval_start": "2019-10-12T20:00:00+01:00",
      "interval_end": "2019-10-12T20:30:00+01:00"
    },
    {
      "consumption": 0.135,
      "interval_start": "2019-10-12T19:30:00+01:00",
      "interval_end": "2019-10-12T20:00:00+01:00"
    },
    {
      "consumption": 0.126,
      "interval_start": "2019-10-12T19:00:00+01:00",
      "interval_end": "2019-10-12T19:30:00+01:00"
    },
    {
      "consumption": 0.104,
      "interval_start": "2019-10-12T18:30:00+01:00",
      "interval_end": "2019-10-12T19:00:00+01:00"
    },
    {
      "consumption": 0.138,
      "interval_start": "2019-10-12T18:00:00+01:00",
      "interval_end": "2019-10-12T18:30:00+01:00"
    },
    {
      "consumption": 0.134,
      "interval_start": "2019-10-12T17:30:00+01:00",
      "interval_end": "2019-10-12T18:00:00+01:00"
    },
    {
      "consumption": 0.162,
      "interval_start": "2019-10-12T17:00:00+01:00",
      "interval_end": "2019-10-12T17:30:00+01:00"
    },
    {
      "consumption": 0.104,
      "interval_start": "2019-10-12T16:30:00+01:00",
      "interval_end": "2019-10-12T17:00:00+01:00"
    },
    {
      "consumption": 0.101,
      "interval_start": "2019-10-12T16:00:00+01:00",
      "interval_end": "2019-10-12T16:30:00+01:00"
    },
    {
      "consumption": 0.078,
      "interval_start": "2019-10-12T15:30:00+01:00",
      "interval_end": "2019-10-12T16:00:00+01:00"
    },
    {
      "consumption": 0.095,
      "interval_start": "2019-10-12T15:00:00+01:00",
      "interval_end": "2019-10-12T15:30:00+01:00"
    },
    {
      "consumption": 0.119,
      "interval_start": "2019-10-12T14:30:00+01:00",
      "interval_end": "2019-10-12T15:00:00+01:00"
    },
    {
      "consumption": 0.249,
      "interval_start": "2019-10-12T14:00:00+01:00",
      "interval_end": "2019-10-12T14:30:00+01:00"
    },
    {
      "consumption": 0.123,
      "interval_start": "2019-10-12T13:30:00+01:00",
      "interval_end": "2019-10-12T14:00:00+01:00"
    },
    {
      "consumption": 0.147,
      "interval_start": "2019-10-12T13:00:00+01:00",
      "interval_end": "2019-10-12T13:30:00+01:00"
    },
    {
      "consumption": 0.115,
      "interval_start": "2019-10-12T12:30:00+01:00",
      "interval_end": "2019-10-12T13:00:00+01:00"
    },
    {
      "consumption": 0.138,
      "interval_start": "2019-10-12T12:00:00+01:00",
      "interval_end": "2019-10-12T12:30:00+01:00"
    },
    {
      "consumption": 0.116,
      "interval_start": "2019-10-12T11:30:00+01:00",
      "interval_end": "2019-10-12T12:00:00+01:00"
    },
    {
      "consumption": 0.171,
      "interval_start": "2019-10-12T11:00:00+01:00",
      "interval_end": "2019-10-12T11:30:00+01:00"
    },
    {
      "consumption": 0.088,
      "interval_start": "2019-10-12T10:30:00+01:00",
      "interval_end": "2019-10-12T11:00:00+01:00"
    },
    {
      "consumption": 0.072,
      "interval_start": "2019-10-12T10:00:00+01:00",
      "interval_end": "2019-10-12T10:30:00+01:00"
    },
    {
      "consumption": 0.253,
      "interval_start": "2019-10-12T09:30:00+01:00",
      "interval_end": "2019-10-12T10:00:00+01:00"
    },
    {
      "consumption": 0.074,
      "interval_start": "2019-10-12T09:00:00+01:00",
      "interval_end": "2019-10-12T09:30:00+01:00"
    },
    {
      "consumption": 0.266,
      "interval_start": "2019-10-12T08:30:00+01:00",
      "interval_end": "2019-10-12T09:00:00+01:00"
    },
    {
      "consumption": 0.526,
      "interval_start": "2019-10-12T08:00:00+01:00",
      "interval_end": "2019-10-12T08:30:00+01:00"
    },
    {
      "consumption": 0.062,
      "interval_start": "2019-10-12T07:30:00+01:00",
      "interval_end": "2019-10-12T08:00:00+01:00"
    },
    {
      "consumption": 0.08,
      "interval_start": "2019-10-12T07:00:00+01:00",
      "interval_end": "2019-10-12T07:30:00+01:00"
    },
    {
      "consumption": 0.092,
      "interval_start": "2019-10-12T06:30:00+01:00",
      "interval_end": "2019-10-12T07:00:00+01:00"
    },
    {
      "consumption": 0.071,
      "interval_start": "2019-10-12T06:00:00+01:00",
      "interval_end": "2019-10-12T06:30:00+01:00"
    },
    {
      "consumption": 0.107,
      "interval_start": "2019-10-12T05:30:00+01:00",
      "interval_end": "2019-10-12T06:00:00+01:00"
    },
    {
      "consumption": 0.129,
      "interval_start": "2019-10-12T05:00:00+01:00",
      "interval_end": "2019-10-12T05:30:00+01:00"
    },
    {
      "consumption": 0.101,
      "interval_start": "2019-10-12T04:30:00+01:00",
      "interval_end": "2019-10-12T05:00:00+01:00"
    },
    {
      "consumption": 0.118,
      "interval_start": "2019-10-12T04:00:00+01:00",
      "interval_end": "2019-10-12T04:30:00+01:00"
    },
    {
      "consumption": 0.076,
      "interval_start": "2019-10-12T03:30:00+01:00",
      "interval_end": "2019-10-12T04:00:00+01:00"
    },
    {
      "consumption": 0.075,
      "interval_start": "2019-10-12T03:00:00+01:00",
      "interval_end": "2019-10-12T03:30:00+01:00"
    },
    {
      "consumption": 0.083,
      "interval_start": "2019-10-12T02:30:00+01:00",
      "interval_end": "2019-10-12T03:00:00+01:00"
    },
    {
      "consumption": 0.131,
      "interval_start": "2019-10-12T02:00:00+01:00",
      "interval_end": "2019-10-12T02:30:00+01:00"
    },
    {
      "consumption": 0.07,
      "interval_start": "2019-10-12T01:30:00+01:00",
      "interval_end": "2019-10-12T02:00:00+01:00"
    },
    {
      "consumption": 0.073,
      "interval_start": "2019-10-12T01:00:00+01:00",
      "interval_end": "2019-10-12T01:30:00+01:00"
    },
    {
      "consumption": 0.079,
      "interval_start": "2019-10-12T00:30:00+01:00",
      "interval_end": "2019-10-12T01:00:00+01:00"
    },
    {
      "consumption": 0.088,
      "interval_start": "2019-10-12T00:00:00+01:00",
      "interval_end": "2019-10-12T00:30:00+01:00"
    },
    {
      "consumption": 0.145,
      "interval_start": "2019-10-11T23:30:00+01:00",
      "interval_end": "2019-10-12T00:00:00+01:00"
    },
    {
      "consumption": 0.158,
      "interval_start": "2019-10-11T23:00:00+01:00",
      "interval_end": "2019-10-11T23:30:00+01:00"
    }
  ]
}